Introduction to dplyr, potential outcomes, and random assignment
…
Data cleaning and manipulation in dplyr

Next we will perform some basic data cleaning and manipulation functions using dplyr.

There are many, many more useful functions in dplyr that are not shown here. Consult R for Data Science for a comprehensive overview. If you think a function might exist, or would like to manipulate your data in a particular way but dont know how, try Googling how to X in dplyr!

# 
# Basic data cleaning and manipulation using dplyr
# ______________________________________________________________________________

# Let's select only the variables we need using the "select" function
week1 %>% select(Yi1, Yi0)

## # A tibble: 100 x 2
##      Yi1   Yi0
##    <dbl> <dbl>
##  1    17     6
##  2    12     9
##  3    17     8
##  4    13    14
##  5    14    15
##  6    15     5
##  7    13    10
##  8    16     8
##  9    16     8
## 10    15    11
## #  with 90 more rows

# We can also remove variables we don't need in the following manner
week1 %>% select(-X1, -X2)

## # A tibble: 100 x 2
##      Yi0   Yi1
##    <dbl> <dbl>
##  1     6    17
##  2     9    12
##  3     8    17
##  4    14    13
##  5    15    14
##  6     5    15
##  7    10    13
##  8     8    16
##  9     8    16
## 10    11    15
## #  with 90 more rows

# We can add variables using the mutate function
week1 %>% mutate(X3 = 1)

## # A tibble: 100 x 5
##       X1    X2   Yi0   Yi1    X3
##    <dbl> <dbl> <dbl> <dbl> <dbl>
##  1     0     0     6    17     1
##  2     0     0     9    12     1
##  3     1     1     8    17     1
##  4     1     0    14    13     1
##  5     1     0    15    14     1
##  6     1     1     5    15     1
##  7     0     1    10    13     1
##  8     1     0     8    16     1
##  9     1     1     8    16     1
## 10     0     0    11    15     1
## #  with 90 more rows

# We can use "pipes" to complete multiple dplyr procesese at once
week1 %>% 
  mutate(X3 = 1) %>%
  select(X1, X2, X3, Yi0, Yi1)

## # A tibble: 100 x 5
##       X1    X2    X3   Yi0   Yi1
##    <dbl> <dbl> <dbl> <dbl> <dbl>
##  1     0     0     1     6    17
##  2     0     0     1     9    12
##  3     1     1     1     8    17
##  4     1     0     1    14    13
##  5     1     0     1    15    14
##  6     1     1     1     5    15
##  7     0     1     1    10    13
##  8     1     0     1     8    16
##  9     1     1     1     8    16
## 10     0     0     1    11    15
## #  with 90 more rows
…
# Perform functions described above
analysis = week1_clean %>%
  mutate(
    D = complete_ra(N = 100), # Randomly assign treatment statuses and create D variable
    Y = ifelse(D == 1, Yi1, Yi0), # Reveal treatment or control outcomes and create Y variable
    Y = (D * Yi1) + (1 - D) * Yi0, # Or using switching equation
    ) %>% 
  select(D, Y) %>% # Remove full schedule of potential outcomes. Can never see!
  mutate(ATE = mean(Y[D == 1]) - mean(Y[D == 0])) # Calculate ATE

# Show final dataset
analysis

## # A tibble: 100 x 3
##        D     Y   ATE
##    <int> <dbl> <dbl>
##  1     0     6   5.2
##  2     0     9   5.2
##  3     1    17   5.2
##  4     1    13   5.2
##  5     1    14   5.2
##  6     0     5   5.2
##  7     1    13   5.2
##  8     1    16   5.2
##  9     0     8   5.2
## 10     0    11   5.2
## #  with 90 more rows

We could also calculate treatment effects for indvidual units here, but this is a completely hypothetical exercise. Why?

Answer: In reality, we can never see an individual units treatment and control potential outcomes. If a unit is treated, it reveals its treatment outcome. If it is in control, it reveals its control outcome. This factthat it is impossible to observe the causal effect on a single unitis known as the Fundamental Problem of Causal Inference.

week1_clean %>% mutate(diff = Yi1 - Yi0)

## # A tibble: 100 x 3
##      Yi1   Yi0  diff
##    <dbl> <dbl> <dbl>
##  1    17     6    11
##  2    12     9     3
##  3    17     8     9
##  4    13    14    -1
##  5    14    15    -1
##  6    15     5    10
##  7    13    10     3
##  8    16     8     8
##  9    16     8     8
## 10    15    11     4
## #  with 90 more rows
…
